0.154752 	0.0363205 	0.117855 	-5.80266 	0.01
0.154752 	0.0363205 	0.117855 	-5.82006 	0.31
0.154752 	0.0363205 	0.117855 	-5.83746 	0.61
0.154752 	0.0363205 	0.117855 	-5.85486 	0.91
0.154752 	0.0363205 	0.117855 	-5.87226 	1.21
0.154752 	0.0363205 	0.117855 	-5.88966 	1.51
0.154752 	0.0363205 	0.117855 	-5.90706 	1.81
0.389776 	0.254058 	0.212332 	-5.93333 	2.11
0.389776 	0.254058 	0.212332 	-5.98553 	2.41
0.389776 	0.254058 	0.212332 	-6.03773 	2.71
0.389776 	0.254058 	0.212332 	-6.08993 	3.01
0.389776 	0.254058 	0.212332 	-6.14213 	3.31
0.389776 	0.254058 	0.212332 	-6.19433 	3.61
0.389776 	0.254058 	0.212332 	-6.24653 	3.91
0.501443 	0.49844 	0.500232 	-6.30988 	4.21
